%YAML 1.1
%TAG !u! tag:unity3d.com,2011:
--- !u!1045 &1
EditorBuildSettings:
  m_ObjectHideFlags: 0
  serializedVersion: 2
  m_Scenes:
  - enabled: 1
    path: Assets/Scenes/Menu.unity
    guid: cc652565bdebd9a489dff0a95b8e4bbf
  - enabled: 1
    path: Assets/Scenes/Select LV.unity
    guid: 168e480aa05c1c447bc314aa3bb406d8
  - enabled: 1
    path: Assets/Scenes/Level01.unity
    guid: 4eae2580f8f1a6d4b83e6651e8cf0958
  - enabled: 1
    path: Assets/Scenes/Level02.unity
    guid: 0517f650136875d47ac860b380ec5731
  - enabled: 1
    path: Assets/Scenes/Score01.unity
    guid: 880ec78d26b1e0b4ead48c5e3c81d6ec
  - enabled: 1
    path: Assets/Scenes/Score02.unity
    guid: 604cc7cb2d724b9419001492e52f0e77
  m_configObjects: {}
